{
    "[markdown]": {
        "editor.wordWrap": "off"
    },
    "[python]": {
        "editor.defaultFormatter": "charliermarsh.ruff"
    },
    "breadcrumbs.symbolPath": "off",
    "chat.commandCenter.enabled": false,
    "diffEditor.ignoreTrimWhitespace": false,
    "editor.acceptSuggestionOnEnter": "off",
    "editor.autoClosingBrackets": "never",
    "editor.autoClosingDelete": "never",
    "editor.autoClosingOvertype": "never",
    "editor.autoClosingQuotes": "never",
    "editor.codeActionsOnSave": {
        "source.fixAll": "explicit",
        "source.organizeImports": "explicit"
    },
    "editor.cursorSurroundingLines": 5,
    "editor.dragAndDrop": false,
    "editor.find.seedSearchStringFromSelection": "selection",
    "editor.folding": false,
    "editor.formatOnSave": true,
    "editor.minimap.enabled": false,
    "editor.parameterHints.enabled": false,
    "editor.scrollBeyondLastLine": false,
    "editor.smoothScrolling": true,
    "editor.stickyScroll.enabled": false,
    "editor.wordWrap": "on",
    "explorer.autoReveal": false,
    "explorer.confirmDelete": false,
    "explorer.decorations.badges": false,
    "explorer.decorations.colors": false,
    "extensions.ignoreRecommendations": true,
    "files.exclude": {
        "**/__pycache__": true,
        "**/.mypy_cache": true,
        "**/.pytest_cache": true,
        "**/.ruff_cache": true
    },
    "files.insertFinalNewline": true,
    "files.restoreUndoStack": false,
    "git.openRepositoryInParentFolders": "never",
    "html.format.enable": false,
    "html.format.wrapLineLength": 0,
    "python.analysis.typeCheckingMode": "strict",
    "search.decorations.badges": false,
    "telemetry.telemetryLevel": "off",
    "todohighlight.keywords": [
        "MARK",
        "TODO"
    ],
    "trailing-spaces.highlightCurrentLine": false,
    "workbench.colorTheme": "Default Light+",
    "workbench.editor.decorations.badges": false,
    "workbench.editor.enablePreview": false,
    "workbench.editor.highlightModifiedTabs": true,
    "workbench.editor.showIcons": false,
    "workbench.editor.wrapTabs": true,
    "workbench.enableExperiments": false,
    "workbench.list.openMode": "doubleClick",
    "workbench.startupEditor": "none",
    "workbench.tree.enableStickyScroll": false,
    "workbench.tree.expandMode": "doubleClick",
    "workbench.tree.indent": 16,
    "workbench.tree.renderIndentGuides": "none",
    "workbench.welcomePage.walkthroughs.openOnInstall": false
}
